<?xml version="1.0" encoding="utf-8"?>
<!-- Generator: Adobe Illustrator 19.1.0, SVG Export Plug-In . SVG Version: 6.00 Build 0)  -->
<svg version="1.1" id="Layer_1" xmlns="http://www.w3.org/2000/svg" xmlns:xlink="http://www.w3.org/1999/xlink" x="0px" y="0px"
	 viewBox="0 0 600 600" style="enable-background:new 0 0 600 600;" xml:space="preserve">
<style type="text/css">
	.st0{fill:#FFFFFF;}
</style>
<g id="_x33_D_and_CAD_Courses">
	<path class="st0" d="M299.9,88.4L87,170.6v244.1l212.9,96.9L513,414.6v-244L299.9,88.4z M291,487l-185-84.2V191.1l185,76.2V487z
		 M299.7,251.3L118,176.7l181.9-68l181.7,67.9L299.7,251.3z M494,402.8L309,487V267.1L494,191V402.8z"/>
</g>
</svg>
