<?xml version="1.0" encoding="utf-8"?>
<!-- Generator: Adobe Illustrator 19.1.0, SVG Export Plug-In . SVG Version: 6.00 Build 0)  -->
<svg version="1.1" id="Layer_1" xmlns="http://www.w3.org/2000/svg" xmlns:xlink="http://www.w3.org/1999/xlink" x="0px" y="0px"
	 viewBox="0 0 600 600" style="enable-background:new 0 0 600 600;" xml:space="preserve">
<style type="text/css">
	.st0{fill:#FFFFFF;}
</style>
<g id="Facilities">
	<path class="st0" d="M406.3,226.3c-1-12.3-1.9-24.7-2.9-37c-1.1-14.2-2.2-28.4-3.3-42.6c-1.2-14.9-2.3-29.8-3.5-44.7
		c-0.5-6.6-1.1-13.1-3.2-19.4c-6.9-20.8-24.3-34.3-45.2-34.4c-31.5-0.1-63-0.1-94.5-0.1c-6.9,0-13.6,1.5-19.8,4.6
		c-15,7.7-23.4,20.4-26.9,36.5c-1.3,5.9-1.5,12.1-2.2,18.2c-0.8,7.8-1.6,15.6-2.3,23.4c-1,10.4-1.9,20.9-2.9,31.3
		c-1,10.6-2.1,21.3-3.1,31.9c-1,10.5-1.8,21-2.9,31.5c-0.8,7.6,0.1,14.9,3.6,21.7c9.2,17.9,24.3,26.7,44.2,27.3
		c12.5,0.4,25.1,0.1,37.6,0.1c7.3,0,16,0,22,0V274h2.3c18.3,0,36.6,0.3,54.9,0.2c14.1,0,26.1-5,35.9-15.1
		C403,250,407.3,239.1,406.3,226.3z"/>
	<path class="st0" d="M406.1,346.4c0-15.6-11.1-26.8-26.8-26.8c-53.5,0-106.9,0-160.4,0c-11.9,0-23.2,9.5-24.6,21.2
		c-0.7,6.1-0.2,12.4-0.6,18.5c-0.4,6.2,3.9,11.6,11.5,11.5c26.5-0.2,51.8-0.1,78.3-0.1c0.8,0,1.5,0.1,1.5,0.1v17h26v-16h4.1
		c26.6,0,53.1-0.7,79.7-0.6c6.5,0,11.6-4.6,11.3-11.7C405.9,355.4,406.1,350.7,406.1,346.4z"/>
	<path class="st0" d="M276.5,469.4c0-5.3,0-10.4,0-15.6c15.7,0,31.2,0,46.9,0c0,5.2,0,10.3,0,15.6c1,0,1.8,0,2.5,0
		c15.3,0,30.5,0.5,45.5,3.2c12.6,2.3,24.7,5.9,35.4,13.2c12.7,8.6,19.9,20.6,22.1,35.7c0.1,0.8,0.3,1.7,0.5,2.8
		c-3.7-2.4-7.2-2.4-10.3,0.1c-2.9-12.9-9.6-23.1-21-29.9c-8.3-5-17.5-7.5-27-9.1c-15.5-2.6-31.1-3-46.8-3.1c-0.2,0-0.4,0.1-0.8,0.2
		c0,5.1,0,10.2,0,15.5c-5.9,0-11.6,0-17.5,0c0,7.3,0,14.4,0,21.6c-4,0-7.8,0-11.9,0c0-7.1,0-14.1,0-21.4c-5.9,0-11.7,0-17.6,0
		c0-5.3,0-10.3,0-15.7c-0.9,0-1.7,0-2.5,0c-10.8,0.4-21.6,0.5-32.3,1.4c-12.2,1-24.2,3.1-35.4,8.3c-12.8,6.1-21.1,16-24.9,29.6
		c-0.1,0.4-0.2,0.9-0.3,1.3c0,0.4,0,0.8,0,1.5c-3.4-2.3-6.8-2.6-10.8-0.1c0.6-3.2,1-6,1.7-8.7c4.2-17,15.1-28.2,30.7-35.4
		c9.6-4.4,19.8-6.9,30.3-8.5c13.9-2.1,27.8-2.5,41.8-2.4C275.3,469.5,275.7,469.4,276.5,469.4z"/>
	<path class="st0" d="M186.6,362.9c-6-0.6-11.8-1.7-17.3-3.8c-27.3-10.2-44.2-29.5-50.2-58.2c-0.9-4.2-1.2-8.5-1.3-12.8
		c-0.2-8.8-0.1-17.7-0.1-26.6c0-0.5,0-0.9,0.1-1.5c6.3,0,12.6,0,19.1,0c0,0.9,0,1.6,0,2.4c0.1,10-0.2,20,0.5,29.9
		c1.1,15.4,8.1,28,19.7,38c8.1,7,17.4,11.3,28,12.9c0.6,0.1,1.1,0.3,1.7,0.4C186.6,350.2,186.6,356.5,186.6,362.9z"/>
	<path class="st0" d="M463,260.1c6.5,0,12.6,0,18.9,0c0.1,0.4,0.2,0.7,0.2,1c0,9.8,0.3,19.7-0.1,29.5c-0.9,20.6-9.1,37.9-24,52
		c-12.1,11.4-26.6,18.1-43.1,20.1c-0.5,0.1-0.9,0.1-1.5,0.1c0-6.4,0-12.6,0-18.5c5.3-1.7,10.8-2.8,15.7-5.1
		c21.7-10.3,33.2-27.6,34-51.8c0.3-8.3,0-16.6,0-25C463,261.7,463,261,463,260.1z"/>
	<path class="st0" d="M472.5,252c-8.9,0-17.8,0-26.8,0c-4.9,0-7-2.1-7-7.1c0-2.6-0.1-5.2,0-7.8c0.2-8.8,6.7-15.1,15.5-15.1
		c12.4,0,24.9,0,37.3,0c8.4,0,15.1,6.5,15.2,15c0.1,2.8,0,5.6,0,8.4c0,4.2-2.3,6.5-6.5,6.6c-0.1,0-0.1,0-0.2,0
		C490.9,252,481.7,252,472.5,252z"/>
	<path class="st0" d="M161.1,236.1c-0.1-8.5-6.8-16.1-15.2-16.1H108c-6.9,0-13.2,6-14.4,12.8c-0.6,3.7-0.4,8.1-0.5,11.9
		c0,4.6,2.2,7.1,6.8,7.1c9.1,0,18.1,0.1,27.2,0.1c9.1,0,18.2,0.1,27.4,0.1c4.3,0,6.6-2.8,6.6-7.2C161.1,242,161.2,238.8,161.1,236.1
		z"/>
	<path class="st0" d="M317.5,399.3c0,15.5,0,30.9,0,46.4c-11.7,0-23.4,0-35.1,0c0-15.5,0-30.9,0-46.4
		C294,399.3,305.7,399.3,317.5,399.3z"/>
	<path class="st0" d="M310.7,313.4c-7.2,0-14.3,0-21.6,0c0-10.5,0-20.9,0-31.4c7.2,0,14.3,0,21.6,0
		C310.7,292.4,310.7,302.8,310.7,313.4z"/>
	<path class="st0" d="M175.7,525.4c5.9,0,10.9,5,10.8,10.8c-0.1,5.9-5,10.9-10.8,10.9c-5.9,0-11-5.1-10.9-11
		C164.9,530.2,169.8,525.4,175.7,525.4z"/>
	<path class="st0" d="M413.4,536.2c-0.1-5.8,4.9-10.8,10.8-10.8c5.9,0,10.8,4.9,10.8,10.8c0,5.9-4.9,10.8-10.8,10.8
		C418.3,547,413.5,542.2,413.4,536.2z"/>
	<path class="st0" d="M294.1,536.3c0-2.7,0-5.5,0-8.2c0-1.6,0.7-2.6,2.3-2.6c2.5,0,4.9,0,7.4,0.1c1.4,0,2.1,0.9,2.1,2.2
		c0,5.7,0,11.3,0,17c0,1.4-0.9,2.2-2.3,2.2c-2.3,0-4.7,0.1-7,0.1c-1.7,0-2.5-0.9-2.5-2.6C294.1,541.7,294.1,539,294.1,536.3z"/>
</g>
</svg>
