<?xml version="1.0" encoding="utf-8"?>
<!-- Generator: Adobe Illustrator 19.1.0, SVG Export Plug-In . SVG Version: 6.00 Build 0)  -->
<svg version="1.1" id="Layer_1" xmlns="http://www.w3.org/2000/svg" xmlns:xlink="http://www.w3.org/1999/xlink" x="0px" y="0px"
	 viewBox="0 0 600 600" style="enable-background:new 0 0 600 600;" xml:space="preserve">
<style type="text/css">
	.st0{fill:#FFFFFF;}
</style>
<g id="Weekend">
	<path class="st0" d="M453.2,149H418v35.1c0,11.3-8.7,20.9-20,20.9h-10.5c-11.3,0-20.5-9.6-20.5-20.9V149H232v35.1
		c0,11.3-8.9,20.9-20.2,20.9h-10.5c-11.3,0-20.3-9.6-20.3-20.9V149h-34.9C119,149,97,170.8,97,198v245.6c0,27.1,22,49.5,49.1,49.5
		h307.1c27.1,0,49.8-22.3,49.8-49.5V198C503,170.8,480.3,149,453.2,149z M459,448H140V235h319V448z"/>
	<path class="st0" d="M209.7,190.3h-6.4c-6.3,0-11.5-5.2-11.5-11.5v-60c0-6.3,5.2-11.5,11.5-11.5h6.4c6.3,0,11.5,5.2,11.5,11.5v60
		C221.2,185.1,216,190.3,209.7,190.3z"/>
	<path class="st0" d="M395.6,190.3h-6.4c-6.3,0-11.5-5.2-11.5-11.5v-60c0-6.3,5.2-11.5,11.5-11.5h6.4c6.3,0,11.5,5.2,11.5,11.5v60
		C407.1,185.1,401.9,190.3,395.6,190.3z"/>
	<g>
		<path class="st0" d="M188.4,259.6h50.7L257,360.8l20.3-101.2h44.4l20,101.2L360,259.6h51.6l-40.3,163.3h-53.1L300,328.3
			l-19.5,94.7H228L188.4,259.6z"/>
	</g>
</g>
</svg>
